Geographical Mapping: Parking Violations in NYC
…
b) Average amount of fine by vehicle

Compare the average amount of fine by vehicle color, vehicle year, and vehicle plate type.

## # A tibble: 2 x 2
##   plate_type   avg
##   <chr>      <dbl>
## 1 COM         79.8
## 2 PAS         78.6

## # A tibble: 117 x 2
##    vehicle_color   avg
##    <chr>         <dbl>
##  1 B               115
##  2 BRN             115
##  3 BRO             115
##  4 BRWN            115
##  5 BWN             115
##  6 DKM             115
##  7 FR              115
##  8 GLD             115
##  9 GRA             115
## 10 GREE            115
## #  with 107 more rows

## # A tibble: 50 x 2
##    vehicle_year   avg
##           <dbl> <dbl>
##  1         1993  95.4
##  2         1990  94.8
##  3         1988  92.5
##  4         1997  92.0
##  5         1986  90.0
##  6         1983  90  
##  7         2020  89  
##  8         1992  86.9
##  9         1987  86.7
## 10         1995  86.5
## #  with 40 more rows
…
3. Use geo-coding API to locate address for mapping

a) Geocode at least 500 addresses of violations

500 Violations on Ignoring Fire Hydrants

Include a data table of these addresses and the latitude and longitude of these addresses in the output.

## # A tibble: 500 x 3
##    address                           lat   lon
##    <chr>                           <dbl> <dbl>
##  1 E 95th St 301 New York, NY       40.8 -73.9
##  2 E 93rd St 118 New York, NY       40.8 -74.0
##  3 E 69th St 201 New York, NY       40.8 -74.0
##  4 Madison Ave 744 New York, NY     40.8 -74.0
##  5 E 70th St 331 New York, NY       40.8 -74.0
##  6 Lexington Ave 1291 New York, NY  40.8 -74.0
##  7 E 75th St N New York, NY         40.8 -74.0
##  8 E 73rd St 328 New York, NY       40.8 -74.0
##  9 E 78th St 205 New York, NY       40.8 -74.0
## 10 E 92nd St N New York, NY         40.8 -74.0
## #  with 490 more rows
…
